<?xml version="1.0" encoding="UTF-8"?>
<svg width="48px" height="48px" viewBox="0 0 48 48" version="1.1" xmlns="http://www.w3.org/2000/svg" xmlns:xlink="http://www.w3.org/1999/xlink">
    <!-- Generator: Sketch 52.1 (67048) - http://www.bohemiancoding.com/sketch -->
    <title>Shape</title>
    <desc>Created with Sketch.</desc>
    <g id="Symbols" stroke="none" stroke-width="1" fill="none" fill-rule="evenodd">
        <g id="menu_nav_db" transform="translate(-35.000000, -363.000000)" fill="#ECEFF1" fill-rule="nonzero">
            <g id="menu">
                <g id="mainMenu" transform="translate(0.000000, 150.000000)">
                    <g id="file-transfer" transform="translate(35.000000, 213.000000)">
                        <path d="M43.2,4.82142857 L24,4.82142857 L19.2,0 L4.8,0 C2.16,0 0,2.16964286 0,4.82142857 L0,33.75 C0,36.4017857 2.16,38.5714286 4.8,38.5714286 L43.2,38.5714286 C45.84,38.5714286 48,36.4017857 48,33.75 L48,9.64285714 C48,6.99107143 45.84,4.82142857 43.2,4.82142857 Z M10.8,17.3571429 L19.2,7.71428571 L27.6,17.3571429 L22.8,17.3571429 L22.8,24.5892857 L15.6,24.5892857 L15.6,17.3571429 L10.8,17.3571429 Z M28.8,36.6428571 L20.4,27 L25.2,27 L25.2,19.7678571 L32.4,19.7678571 L32.4,27 L37.2,27 L28.8,36.6428571 Z" id="Shape"></path>
                    </g>
                </g>
            </g>
        </g>
    </g>
</svg>