<?xml version="1.0" encoding="UTF-8"?>
<svg width="64px" height="64px" viewBox="0 0 64 64" version="1.1" xmlns="http://www.w3.org/2000/svg" xmlns:xlink="http://www.w3.org/1999/xlink">
    <!-- Generator: Sketch 52.1 (67048) - http://www.bohemiancoding.com/sketch -->
    <title>account-group_v2</title>
    <desc>Created with Sketch.</desc>
    <g id="Page-1" stroke="none" stroke-width="1" fill="none" fill-rule="evenodd">
        <g id="dashboard" transform="translate(-777.000000, -208.000000)" fill="#315F71" fill-rule="nonzero">
            <g id="item" transform="translate(705.000000, 187.000000)">
                <g id="account-group_v2" transform="translate(72.000000, 21.000000)">
                    <path d="M32,0 C26.7636364,0 22.4,4.65454545 23.2727273,10.1818182 C23.8545455,13.6727273 26.7636364,16.5818182 30.2545455,17.1636364 C35.7818182,18.0363636 40.4363636,13.9636364 40.4363636,8.43636364 C40.7272727,3.78181818 36.9454545,0 32,0 Z M14.5454545,6.10909091 C9.89090909,6.10909091 6.4,10.4727273 7.56363636,15.4181818 C8.14545455,17.7454545 10.1818182,19.7818182 12.5090909,20.6545455 C16,21.5272727 18.9090909,20.0727273 20.6545455,17.7454545 C18.6181818,15.1272727 17.4545455,11.9272727 17.4545455,8.72727273 C17.4545455,8.14545455 17.4545455,7.56363636 17.4545455,6.98181818 C16.5818182,6.4 15.7090909,6.10909091 14.5454545,6.10909091 Z M49.4545455,6.10909091 C48.2909091,6.10909091 47.4181818,6.4 46.5454545,6.69090909 C46.5454545,7.27272727 46.5454545,7.85454545 46.5454545,8.43636364 C46.5454545,11.6363636 45.3818182,14.8363636 43.3454545,17.1636364 C45.0909091,19.7818182 48,21.2363636 51.4909091,20.0727273 C53.8181818,19.4909091 55.8545455,17.4545455 56.4363636,14.8363636 C57.6,10.4727273 54.1090909,6.10909091 49.4545455,6.10909091 Z M32,23.2727273 C26.1818182,23.2727273 14.5454545,26.1818182 14.5454545,32 L14.5454545,42.4727273 L49.4545455,42.4727273 L49.4545455,32 C49.4545455,26.1818182 37.8181818,23.2727273 32,23.2727273 Z M10.7636364,25.8909091 C5.81818182,26.7636364 0,29.0909091 0,32.8727273 L0,42.4727273 L8.72727273,42.4727273 L8.72727273,32 C8.72727273,29.6727273 9.6,27.6363636 10.7636364,25.8909091 Z M53.2363636,25.8909091 C54.4,27.6363636 55.2727273,29.3818182 55.2727273,31.7090909 L55.2727273,42.1818182 L64,42.1818182 L64,32.5818182 C64,29.0909091 58.1818182,26.7636364 53.2363636,25.8909091 Z" id="Shape"></path>
                </g>
            </g>
        </g>
    </g>
</svg>